Survey Methodology Group Prj
…
final_data %>%
  group_by(iso3c) %>%
  summarise(Support_Rate = mean(transgender_civil_dc, na.rm = TRUE) * 100) %>%
  arrange(desc(Support_Rate))

# A tibble: 25 × 2
   iso3c Support_Rate
   <chr>        <dbl>
 1 BGR           217.
 2 HUN           198.
 3 ROU           192.
 4 LTU           179.
 5 POL           179.
 6 CYP           178.
 7 LVA           175.
 8 ITA           172.
 9 EST           171.
10 CZE           168.
# ℹ 15 more rows
…
print(economic_summary)

# A tibble: 25 × 9
   country  avg_gdp avg_edu_exp avg_preprim_exp avg_prim_exp avg_lose_exp
   <chr>      <dbl>       <dbl>           <dbl>        <dbl>        <dbl>
 1 Austria  4.43e11        5.22            86.6         90.8         96.0
 2 Belgium  5.37e11        6.33            93.0         94.6         97.2
 3 Bulgaria 6.86e10        4.20            94.7         94.1         94.6
 4 Croatia  6.15e10        3.92            93.3         92.5         92.7
 5 Cyprus   2.62e10        5.21            93.7         95.7         97.8
 6 Czechia  2.57e11        4.54            91.0         88.5         88.6
 7 Denmark  3.45e11        7.26            94.8         89.9         89.9
 8 Estonia  3.19e10        5.26            93.3         86.4         86.4
 9 Finland  2.67e11        6.42            92.1         85.1         85.0
10 France   2.72e12        5.35            92.4         91.7         91.4
# ℹ 15 more rows
# ℹ 3 more variables: avg_upse_exp <dbl>, avg_ter_exp <dbl>, avg_voc_exp <dbl>
…
